<?xml version="1.0" encoding="utf-8"?>
<!-- Generator: Adobe Illustrator 15.0.2, SVG Export Plug-In . SVG Version: 6.00 Build 0)  -->
<!DOCTYPE svg PUBLIC "-//W3C//DTD SVG 1.1//EN" "http://www.w3.org/Graphics/SVG/1.1/DTD/svg11.dtd">
<svg version="1.1" id="Layer_1" xmlns="http://www.w3.org/2000/svg" xmlns:xlink="http://www.w3.org/1999/xlink" x="0px" y="0px"
	 width="190.719px" height="64.479px" viewBox="0 0 190.719 64.479" enable-background="new 0 0 190.719 64.479"
	 xml:space="preserve">
<path fill="#FFFFFF" d="M26.303,16.96H14.955v10.516h-3.577V16.96H0v-3.237h26.303V16.96z M22.911,10.947H3.854V0.864h18.718v3.237
	H7.431v3.607h15.48V10.947z"/>
<path fill="#FFFFFF" d="M40.056,8.974c0.637,0.761,1.398,1.501,2.282,2.221c0.883,0.72,1.716,1.295,2.497,1.727l-2.898,2.713
	c-0.597-0.452-1.275-1.007-2.035-1.665c-0.761-0.657-1.347-1.233-1.758-1.727c-0.432-0.514-0.823-1.002-1.172-1.465
	c-0.35-0.463-0.699-1.032-1.048-1.712c-0.37,0.699-0.71,1.255-1.018,1.665c-0.308,0.412-0.689,0.864-1.141,1.357
	c-0.452,0.514-1.043,1.069-1.773,1.665c-0.73,0.597-1.547,1.275-2.452,2.035l-3.114-2.59c1.028-0.638,2.076-1.352,3.145-2.144
	c1.069-0.791,1.891-1.566,2.468-2.328c0.493-0.657,1.017-1.572,1.572-2.743c0.555-1.173,0.833-2.857,0.833-5.059l3.947,0.155
	c-0.062,0.719-0.108,1.09-0.139,1.109c-0.031,0.021-0.067,0.422-0.108,1.202c0,1.07,0.159,2.071,0.478,3.007
	C38.94,7.335,39.418,8.192,40.056,8.974 M51.712,26.581H31.853V16.343h3.577v7h16.282V26.581z M53.747,12.088h-3.515v8.48h-3.608V0
	h3.608v8.85h3.515V12.088z"/>
<path fill="#FFFFFF" d="M64.848,2.159c2.199,0,3.931,0.663,5.196,1.988c1.264,1.326,1.896,2.895,1.896,4.702
	c0,1.789-0.638,3.315-1.912,4.579c-1.275,1.266-3.001,1.897-5.18,1.897c-2.077,0-3.788-0.602-5.134-1.805
	c-1.347-1.202-2.02-2.76-2.02-4.672c0-1.747,0.585-3.299,1.757-4.655C60.623,2.837,62.421,2.159,64.848,2.159 M80.266,26.889h-19.52
	V17.73h3.577v5.921h15.943V26.889z M64.848,12.088c1.089,0,1.958-0.329,2.605-0.987c0.648-0.657,0.971-1.407,0.971-2.251
	c0-0.843-0.323-1.629-0.971-2.358c-0.647-0.729-1.516-1.095-2.605-1.095c-1.316,0-2.251,0.365-2.806,1.095
	c-0.556,0.729-0.833,1.516-0.833,2.358c0,0.823,0.282,1.568,0.848,2.236C62.622,11.754,63.552,12.088,64.848,12.088 M79.155,20.383
	h-3.577V0h3.577V20.383z"/>
<path fill="#FFFFFF" d="M109.529,24.146H83.288v-3.238h26.241V24.146z M106.876,6.138H85.724V2.899h21.153V6.138z M93.401,13.014
	h5.612l0.709-5.736l3.64,0.679l-1.08,5.058h3.948v3.237H86.032v-3.237h3.978l-0.833-5.242l3.701-0.556L93.401,13.014z"/>
<path fill="#FFFFFF" d="M128.461,22.48c-1.562,0.267-3.757,0.477-6.583,0.631c-2.827,0.155-5.803,0.232-8.927,0.232V10.979h9.682
	v-4.41h-9.65V3.33h13.229v10.731h-9.683v6.044c2.179,0,4.348-0.057,6.506-0.17c2.159-0.112,3.813-0.333,4.965-0.662L128.461,22.48z
	 M137.003,15.942h-3.515v11.533h-3.577V0h3.577v12.704h3.515V15.942z"/>
<path fill="#FFFFFF" d="M164.262,24.268H138.02V21.03h9.807v-6.137h3.577v6.137h12.858V24.268z M158.034,9.651
	c0.041-0.555,0.065-1.084,0.076-1.588c0.011-0.503,0.026-0.961,0.047-1.372h-16.651V3.454h20.228
	c-0.02,2.302-0.185,5.145-0.492,8.525c-0.31,3.382-0.668,5.834-1.08,7.355l-3.453-0.586c0.267-0.781,0.493-1.717,0.678-2.807
	c0.186-1.09,0.329-2.221,0.432-3.393l-15.973,1.481l-0.74-3.361L158.034,9.651z"/>
<path fill="#FFFFFF" d="M174.038,2.652c1.479,0,3.021,0.72,4.626,2.158c1.603,1.439,2.403,4.276,2.403,8.511
	c0,3.947-0.806,6.713-2.42,8.295c-1.613,1.584-3.149,2.375-4.609,2.375c-1.48,0-3.027-0.72-4.642-2.159
	c-1.614-1.438-2.42-4.275-2.42-8.511c0-4.234,0.812-7.071,2.437-8.511C171.036,3.372,172.578,2.652,174.038,2.652 M174.038,20.814
	c1.089,0,1.946-0.652,2.574-1.958c0.627-1.306,0.94-3.15,0.94-5.535c0-2.384-0.308-4.229-0.925-5.535
	c-0.617-1.305-1.48-1.958-2.59-1.958c-1.069,0-1.928,0.658-2.575,1.974c-0.648,1.316-0.971,3.155-0.971,5.52
	c0,2.405,0.317,4.256,0.955,5.551C172.083,20.167,172.947,20.814,174.038,20.814 M190.165,27.476h-3.577V14.832h-5.119v-3.237h5.119
	V0h3.577V27.476z"/>
<path fill="#FFFFFF" d="M109.528,51.527H83.287v-3.238H93v-4.101h3.578v4.101h12.95V51.527z M96.392,53.501
	c2.282,0,4.528,0.354,6.738,1.063c2.209,0.709,3.314,2.164,3.314,4.364c0,2.158-1.105,3.576-3.314,4.255
	c-2.21,0.678-4.467,1.018-6.77,1.018c-2.302,0-4.562-0.34-6.783-1.018c-2.221-0.679-3.331-2.107-3.331-4.286
	s1.115-3.624,3.346-4.333C91.823,53.855,94.09,53.501,96.392,53.501 M106.044,37.867c-0.021,1.953-0.15,3.813-0.385,5.581
	c-0.237,1.769-0.47,3.197-0.694,4.286l-3.608-0.586c0.227-0.822,0.411-1.824,0.556-3.006c0.144-1.182,0.216-2.194,0.216-3.038
	H86.371v-3.237H106.044z M96.392,61.271c1.459,0,2.895-0.123,4.302-0.37s2.112-0.904,2.112-1.973c0-1.09-0.705-1.778-2.112-2.066
	s-2.843-0.432-4.302-0.432c-1.479,0-2.935,0.139-4.363,0.416c-1.429,0.277-2.143,0.962-2.143,2.051c0,1.069,0.714,1.731,2.143,1.989
	C93.457,61.144,94.913,61.271,96.392,61.271"/>
<path fill="#FFFFFF" d="M115.449,46.687c0.37-0.35,0.827-0.89,1.372-1.619s0.91-1.814,1.096-3.253h-5.612v-3.207h15.048v3.207
	h-5.644c0.165,1.131,0.488,2.056,0.972,2.774c0.483,0.721,1.012,1.348,1.588,1.881c0.493,0.453,1.197,0.946,2.112,1.48
	c0.915,0.535,1.813,0.977,2.699,1.326l-2.313,2.745c-0.699-0.31-1.429-0.704-2.189-1.188c-0.762-0.481-1.46-0.98-2.098-1.495
	c-0.452-0.349-0.92-0.786-1.402-1.311c-0.483-0.524-0.909-1.084-1.279-1.68c-0.31,0.637-0.694,1.218-1.156,1.741
	c-0.463,0.524-0.91,0.982-1.342,1.372c-0.515,0.453-1.152,0.937-1.912,1.449c-0.761,0.515-1.562,0.946-2.405,1.296l-2.683-2.56
	c1.09-0.391,2.082-0.854,2.976-1.388C114.169,47.725,114.894,47.2,115.449,46.687 M133.396,64.448h-3.578v-7.833h-15.541v-3.238
	h19.119V64.448z M137.25,48.012h-3.854v4.41h-3.607V37.003h3.607v7.771h3.854V48.012z"/>
<path fill="#FFFFFF" d="M154.055,40.951c0,5.447-1.47,9.815-4.409,13.104c-2.94,3.289-5.839,5.633-8.696,7.03l-2.929-2.867
	c3.104-1.15,5.874-2.986,8.31-5.504s3.654-5.36,3.654-8.526h-10.083v-3.237H154.055z M162.412,64.479h-3.577V37.004h3.577V64.479z"
	/>
<path fill="#FFFFFF" d="M178.54,40.735c0,0.78-0.031,1.552-0.093,2.312c-0.062,0.761-0.154,1.501-0.277,2.221h3.546v-7.4h3.454
	v25.625h-3.454v-8.604h-4.009v-3.084h4.009v-3.453h-3.886v-1.449c-0.699,2.98-1.87,5.663-3.515,8.048
	c-1.646,2.386-3.599,4.399-5.859,6.044l-2.806-2.497c2.609-1.481,4.814-3.629,6.613-6.445c1.8-2.816,2.699-5.509,2.699-8.079h-7.432
	v-3.237H178.54z M190.719,64.479h-3.423V37.004h3.423V64.479z"/>
</svg>
