<?xml version="1.0" encoding="UTF-8" standalone="no"?>
<!DOCTYPE svg PUBLIC "-//W3C//DTD SVG 1.1//EN" "http://www.w3.org/Graphics/SVG/1.1/DTD/svg11.dtd">
<!-- Generated by Microsoft Visio, SVG Export 2_flip.svg Page-1 -->
<svg xmlns="http://www.w3.org/2000/svg" xmlns:xlink="http://www.w3.org/1999/xlink" xmlns:ev="http://www.w3.org/2001/xml-events"
		xmlns:v="http://schemas.microsoft.com/visio/2003/SVGExtensions/" width="8.4375in" height="8.79167in"
		viewBox="0 0 607.5 633" xml:space="preserve" color-interpolation-filters="sRGB" class="st2">
	<v:documentProperties v:langID="1042">
		<v:userDefs>
			<v:ud v:nameU="msvNoAutoConnect" v:val="VT0(1):26"/>
		</v:userDefs>
	</v:documentProperties>

	<style type="text/css">
	<![CDATA[
		.st1 {fill:#ff0000;stroke:#000000;stroke-linecap:round;stroke-linejoin:round;stroke-width:0.75}
		.st2 {fill:none;fill-rule:evenodd;font-size:12px;overflow:visible;stroke-linecap:square;stroke-miterlimit:3}
	]]>
	</style>

	<linearGradient id="anim"  fy="0">
      <stop offset="0" stop-color="#148F01">
		</stop>
	<stop offset=".7" stop-color="#46DF04">
		</stop>
    </linearGradient>

	<g v:mID="0" v:index="1" v:groupContext="foregroundPage">
		<title>Page-1</title>
		<v:pageProperties v:drawingScale="0.0393701" v:pageScale="0.0393701" v:drawingUnits="24" v:shadowOffsetX="9"
				v:shadowOffsetY="-9"/>
		<g id="shape1-1" v:mID="1" v:groupContext="shape" transform="translate(0.375,633.375) scale(1,-1)">
			<title>Sheet.1</title>
			<path 
				fill="url(#anim)" 
				stroke='rgba(49,163,0,0.7)'
				d="M185.38 0.75 L420.66 0.75 L422.07 192.09 L341.29 192.09 L341.29 237.22 L606.75 237.22 L606.75 633 L0 633 L0
						 340.91 L29.47 340.91 L29.47 236.47 L256.25 236.47 L256.25 190.97 L188.21 190.97 L188.21 159.49 L125.85 159.49
						 L125.85 23.43 L188.21 23.43 L185.38 0.75 Z"/>
		</g>
	</g>
</svg>
